^C:\USERS\OLEG\SOURCE\REPOS\STACK\STACK\DEBUG\STACK.OBJ
C:\USERS\OLEG\SOURCE\REPOS\STACK\DEBUG\STACK.EXE
C:\USERS\OLEG\SOURCE\REPOS\STACK\STACK\DEBUG\STACK.ILK
C:\USERS\OLEG\SOURCE\REPOS\STACK\DEBUG\STACK.PDB
